{
  "Lines": [
    {
      "Ax": 0.1857147365808487,
      "Ay": -1.5462336540222169,
      "Bx": 0.44537949562072756,
      "By": -1.5630203485488892,
      "MinX": 0.1857147365808487,
      "MinY": -1.5630203485488892,
      "MaxX": 0.44537949562072756,
      "MaxY": -1.5462336540222169,
      "Angle": 3.0770349502563478
    }, {
      "Ax": 0.19483798742294312,
      "Ay": -0.9692489504814148,
      "Bx": 0.1857147365808487,
      "By": -1.5462336540222169,
      "MinX": 0.1857147365808487,
      "MinY": -1.5462336540222169,
      "MaxX": 0.19483798742294312,
      "MaxY": -0.9692489504814148,
      "Angle": 1.5549856424331666
    }, {
      "Ax": 0.19046087563037873,
      "Ay": -0.9111116528511047,
      "Bx": 0.19483798742294312,
      "By": -0.9692489504814148,
      "MinX": 0.19046087563037873,
      "MinY": -0.9692489504814148,
      "MaxX": 0.19483798742294312,
      "MaxY": -0.9111116528511047,
      "Angle": 1.6459437608718873
    }, {
      "Ax": 0.2038109451532364,
      "Ay": 0.8753934502601624,
      "Bx": 0.19046087563037873,
      "By": -0.9111116528511047,
      "MinX": 0.19046087563037873,
      "MinY": -0.9111116528511047,
      "MaxX": 0.2038109451532364,
      "MaxY": 0.8753934502601624,
      "Angle": 1.563323736190796
    }, {
      "Ax": 0.7141658663749695,
      "Ay": 0.8713712096214294,
      "Bx": 0.2038109451532364,
      "By": 0.8753934502601624,
      "MinX": 0.2038109451532364,
      "MinY": 0.8713712096214294,
      "MaxX": 0.7141658663749695,
      "MaxY": 0.8753934502601624,
      "Angle": -0.007881098426878453
    }, {
      "Ax": 0.7222289443016052,
      "Ay": 0.05938377603888512,
      "Bx": 0.7141658663749695,
      "By": 0.8713712096214294,
      "MinX": 0.7141658663749695,
      "MinY": 0.05938377603888512,
      "MaxX": 0.7222289443016052,
      "MaxY": 0.8713712096214294,
      "Angle": -1.5608665943145753
    }, {
      "Ax": 0.7289777398109436,
      "Ay": -0.6305374503135681,
      "Bx": 0.7222289443016052,
      "By": 0.05938377603888512,
      "MinX": 0.7222289443016052,
      "MinY": -0.6305374503135681,
      "MaxX": 0.7289777398109436,
      "MaxY": 0.05938377603888512,
      "Angle": -1.5610146522521973
    }, {
      "Ax": 0.7858161330223084,
      "Ay": -0.6299814581871033,
      "Bx": 0.7289777398109436,
      "By": -0.6305374503135681,
      "MinX": 0.7289777398109436,
      "MinY": -0.6310374736785889,
      "MaxX": 0.7858161330223084,
      "MaxY": -0.6294814348220825,
      "Angle": 0.009781669825315476
    }, {
      "Ax": 0.7794179320335388,
      "Ay": 0.02410237118601799,
      "Bx": 0.7858161330223084,
      "By": -0.6299814581871033,
      "MinX": 0.7794179320335388,
      "MinY": -0.6299814581871033,
      "MaxX": 0.7858161330223084,
      "MaxY": 0.02410237118601799,
      "Angle": 1.5805779695510865
    }, {
      "Ax": 2.439544439315796,
      "Ay": 0.009756801649928093,
      "Bx": 0.7794179320335388,
      "By": 0.02410237118601799,
      "MinX": 0.7794179320335388,
      "MinY": 0.009756801649928093,
      "MaxX": 2.439544439315796,
      "MaxY": 0.02410237118601799,
      "Angle": -0.008641036227345467
    }, {
      "Ax": 2.437695026397705,
      "Ay": -0.8447733521461487,
      "Bx": 2.439544439315796,
      "By": 0.009756801649928093,
      "MinX": 2.437695026397705,
      "MinY": -0.8447733521461487,
      "MaxX": 2.439544439315796,
      "MaxY": 0.009756801649928093,
      "Angle": -1.572960615158081
    }, {
      "Ax": 2.083686590194702,
      "Ay": -0.849625289440155,
      "Bx": 2.437695026397705,
      "By": -0.8447733521461487,
      "MinX": 2.083686590194702,
      "MinY": -0.849625289440155,
      "MaxX": 2.437695026397705,
      "MaxY": -0.8447733521461487,
      "Angle": -3.127887725830078
    }, {
      "Ax": 2.0661745071411135,
      "Ay": -2.5024783611297609,
      "Bx": 2.083686590194702,
      "By": -0.849625289440155,
      "MinX": 2.0661745071411135,
      "MinY": -2.5024783611297609,
      "MaxX": 2.083686590194702,
      "MaxY": -0.849625289440155,
      "Angle": -1.5813909769058228
    }, {
      "Ax": 0.45368969440460207,
      "Ay": -2.5035018920898439,
      "Bx": 2.0661745071411135,
      "By": -2.5024783611297609,
      "MinX": 0.45368969440460207,
      "MinY": -2.5035018920898439,
      "MaxX": 2.0661745071411135,
      "MaxY": -2.5024783611297609,
      "Angle": -3.140957832336426
    }, {
      "Ax": 0.486393541097641,
      "Ay": -1.6237683296203614,
      "Bx": 0.45368969440460207,
      "By": -2.5035018920898439,
      "MinX": 0.45368969440460207,
      "MinY": -2.5035018920898439,
      "MaxX": 0.486393541097641,
      "MaxY": -1.6237683296203614,
      "Angle": 1.5336387157440186
    }, {
      "Ax": 0.7712612152099609,
      "Ay": -1.6421846151351929,
      "Bx": 0.486393541097641,
      "By": -1.6237683296203614,
      "MinX": 0.486393541097641,
      "MinY": -1.6421846151351929,
      "MaxX": 0.7712612152099609,
      "MaxY": -1.6237683296203614,
      "Angle": -0.0645587220788002
    }, {
      "Ax": 0.7750014066696167,
      "Ay": -1.5843302011489869,
      "Bx": 0.7712612152099609,
      "By": -1.6421846151351929,
      "MinX": 0.7712612152099609,
      "MinY": -1.6421846151351929,
      "MaxX": 0.7750014066696167,
      "MaxY": -1.5843302011489869,
      "Angle": 1.5062378644943238
    }, {
      "Ax": 0.44537949562072756,
      "Ay": -1.5630203485488892,
      "Bx": 0.7750014066696167,
      "By": -1.5843302011489869,
      "MinX": 0.44537949562072756,
      "MinY": -1.5843302011489869,
      "MaxX": 0.7750014066696167,
      "MaxY": -1.5630203485488892,
      "Angle": 3.077033042907715
    }
  ]
}